…
```r
# Salamander data ! 

mc_salamanders <- mack_verts %>% janitor::clean_names() %>% filter(species=='DITE')
mc_salamanders
```

```
## # A tibble: 11,758 x 18
##    dbcode entity  year sitecode section reach  pass unitnum unittype vert_index
##    <chr>   <dbl> <dbl> <chr>    <chr>   <chr> <dbl>   <dbl> <chr>         <dbl>
##  1 AS006       1  1993 MACKCC-L CC      L         1       1 P                16
##  2 AS006       1  1993 MACKCC-L CC      L         1       2 C                36
##  3 AS006       1  1993 MACKCC-L CC      L         1       2 C                37
##  4 AS006       1  1993 MACKCC-L CC      L         1       2 C                38
##  5 AS006       1  1993 MACKCC-L CC      L         1       2 C                39
##  6 AS006       1  1993 MACKCC-L CC      L         1       2 C                40
##  7 AS006       1  1993 MACKCC-L CC      L         1       2 C                41
##  8 AS006       1  1993 MACKCC-L CC      L         1       2 C                42
##  9 AS006       1  1993 MACKCC-L CC      L         1       2 C                43
## 10 AS006       1  1993 MACKCC-L CC      L         1       2 C                44
## # ... with 11,748 more rows, and 8 more variables: pitnumber <dbl>,
## #   species <chr>, length1 <dbl>, length2 <dbl>, weight <dbl>, clip <chr>,
## #   sampledate <date>, notes <chr>
```
…
